609781 784453 509
259470 152123 443
498596 309954 449
20129 701777 509
293967 66115 443
11506 883358 525
172598 245984 443
296797 28144 443
455914 125987 449
476033 808593 509
675959 88532 509
443115 752982 509
355766 546803 470
679609 140206 509
137101 912788 525
758133 863822 525
858953 271235 525
983122 769584 525
681286 238166 509
344059 12234 443
255624 599016 470
53207 568189 470
200402 226060 386
947530 235487 525
362756 497782 449
269862 788945 509
304330 491250 449
970810 713269 525
861103 692153 525
403706 369971 436
97361 583349 470
820513 738295 468
694556 435131 509
677604 945725 525
507501 357866 449
507300 339865 449
288808 665845 509
49664 67471 340
539085 363070 470
284839 696856 509
153608 502624 449
581677 120470 470
556577 936330 525
947609 758427 525
445589 683244 509
459036 124194 449
438090 103775 449
228647 202114 386
859242 264282 525
536201 571943 452
886981 476397 525
445351 548523 470
618041 411206 470
537293 257322 470
283803 70264 443
379751 5251 443
489868 8554 449
569484 703816 509
76468 409764 443
663833 669469 442
580475 911333 525
435091 148381 449
365938 829581 509
277923 374795 441
382554 736398 509
279238 432624 449
210443 760239 509
589019 836758 509
388402 710905 509
47656 555999 470
635768 541353 509
477824 25964 449
452505 236724 449
429348 331164 449
684423 126709 509
991486 298219 525
67669 477060 449
831769 729455 468
484841 953417 525
504500 395181 449
10336 532065 470
468523 24579 449
966739 932358 507
416858 920644 525
604184 821693 509
798438 719990 468
183255 171213 365
498079 790754 509
188196 829492 509
375362 918120 525
244506 811128 509
365761 142822 443
392581 325227 441
271287 523765 470
904221 832328 525
530381 6216 470
934989 887013 476
365435 862031 525
282027 784626 509
719355 125605 509
382512 922046 525
464592 150991 449
404728 500208 449
226833 594696 470
801642 87223 509
742530 507902 509
765902 936744 525
762659 929758 525
189944 40650 383
784378 213449 509
865956 950619 507
707506 514063 509
172534 576126 470
818554 788822 468
561662 518254 452
984477 599670 525
226779 976091 525
139154 937499 525
973669 831811 525
166005 883335 525
666231 408856 509
140084 131246 344
263032 896371 525
14083 843008 525
813996 41896 509
511581 503231 382
283674 658776 509
103934 961951 525
515693 673974 509
696604 232133 509
139841 23959 354
154384 125398 375
824947 957697 525
120845 560587 470
522310 58837 470
439501 89976 449
413362 819282 509
238213 803733 509
530377 469804 470
351973 137613 443
593716 949278 525
377848 472276 449
596694 598087 372
512056 815865 509
412530 879422 525
235798 875987 525
581670 333758 470
86996 343746 443
683005 403060 509
803671 438237 509
195303 476591 449
660172 107847 509
441355 870437 525
831185 798239 450
32878 13741 308
470819 637233 509
407694 463757 449
275933 970973 525
624078 201514 470
563656 948743 525
142039 50341 354
198991 438018 449
421141 139055 449
591425 377316 470
590680 704062 509
436535 925484 525
436582 668635 509
191423 125111 383
130486 149621 375
317238 859382 525
56312 423626 449
16777 338644 443
451778 695676 509
985765 950395 458
470243 130121 449
715468 164107 509
975422 432620 525
910154 52590 525
550522 955237 525
260552 264361 407
373066 487418 449
319921 378495 441
685380 658859 442
700956 969383 525
573651 28497 470
726303 78461 509
46504 432233 449
911861 128136 525
362244 295358 441
941273 471649 525
101946 5622 351
382865 88475 443
337891 577263 470
550632 102808 470
303018 431728 449
322358 819282 509
758274 783037 468
21495 690824 509
115967 300854 443
984768 112776 525
507048 549577 470
256549 280587 407
258034 849039 525
243319 409293 441
975989 951385 458
812275 426284 509
224607 463030 449
550197 801920 509
69504 162437 383
729750 244386 509
286462 219212 443
10656 348361 443
449157 910366 525
508308 117094 449
956515 56202 525
539776 385018 470
61796 675449 509
687305 777002 504
394741 727561 509
728670 520640 509
434755 248597 449
615884 803979 509
917984 972742 507
876289 231245 525
164368 214863 373
337639 493037 449
225401 878423 525
606889 630846 509
975791 255080 525
816916 695039 504
345586 90371 443
510033 537386 470
399696 648790 509
101788 530390 470
368514 315467 441
881281 329641 525
986190 247053 525
223055 899152 525
160143 207895 373
892092 218359 525
48556 974552 525
180451 122224 383
555412 586291 434
78650 169731 383
652340 698095 442
980813 781652 525
759791 879768 525
187603 359651 443
227357 293555 443
499489 423630 444
