374706 763315 509
654099 894492 525
457083 186506 449
817457 169416 509
661397 593806 509
877269 561574 525
275808 124111 443
713909 206194 509
576708 87140 470
433276 759441 509
984714 658484 525
580085 844629 525
13419 424370 449
352235 230188 443
590606 459246 470
102778 727957 509
336812 674371 509
848572 828534 525
952330 818322 525
214391 827230 509
674364 919261 525
289358 631624 509
437669 221639 449
266683 785376 509
932989 476664 525
39305 590416 470
574110 276327 470
994404 238320 525
710842 529309 509
999407 375074 525
819495 184137 509
1967 496391 449
516546 591368 452
103882 911314 525
250607 881590 525
248453 535250 470
84490 387760 443
605773 917658 525
365591 522966 470
886457 661774 525
57227 267189 443
784130 771621 437
758451 878121 525
543765 660821 509
780105 277146 509
809455 465565 509
73798 887539 525
158176 955369 525
935140 274269 525
505167 473668 426
712032 846491 525
726684 567257 509
307972 376995 441
216159 493885 449
391499 967577 525
306930 894792 525
64126 281269 443
825416 499208 509
601989 546713 434
752352 853570 525
847772 27275 525
684841 37707 509
121543 239754 443
202849 658814 509
167083 497023 449
141876 777536 509
562868 367718 470
172615 352737 443
966055 350318 525
905248 735666 525
71178 708898 509
800958 78030 509
132977 852721 525
385013 833006 509
530144 762370 509
718286 787276 468
144841 742828 509
347655 368866 410
656022 39573 509
855393 677992 525
180164 661357 509
74350 679114 509
826403 134839 509
186160 95681 383
86165 233011 443
600272 808236 509
973301 370748 525
840747 568368 525
962783 442688 525
705750 174941 509
231222 378621 441
549125 522012 452
490083 407666 449
690271 76584 509
629726 520490 509
960 714291 509
317622 286337 389
89325 675121 509
327808 780324 509
576028 976712 525
430523 383722 449
850914 435824 525
486486 807901 509
280801 279566 345
623642 670249 509
634257 203006 509
305707 140518 443
622938 994888 525
862348 588234 525
420180 704240 509
815895 1931 509
976241 4456 525
718054 651518 504
570368 429862 470
683914 909527 525
980358 842974 507
70915 711892 509
983210 384238 525
402917 876681 525
314383 320316 353
479510 586895 470
186012 199414 360
17100 309658 443
723611 898895 525
988978 127515 525
920833 642797 525
816682 36197 509
790366 28947 509
618395 763452 509
858367 565912 525
955531 309950 525
107259 865388 525
56828 79648 351
799284 48121 509
683198 897325 525
440496 820129 509
912807 938636 476
184750 220389 386
594875 928357 525
842277 555783 525
772870 164819 509
215221 965384 525
362559 987495 525
109111 49434 354
32466 896633 525
349804 234532 441
566578 710582 509
254944 759835 509
434120 377923 449
493755 213787 449
34713 399303 443
103093 939214 525
865707 384781 525
174824 361799 443
473310 795971 509
957818 413958 525
369687 68436 443
14457 99837 351
43865 917754 525
605394 858768 525
793311 329460 509
667676 290921 509
488669 549965 470
358805 288485 441
82186 798411 509
539800 354124 470
704498 695817 411
741399 576128 509
606400 307416 470
314781 729440 509
576547 832543 509
428923 320288 449
326183 721821 509
526411 282069 470
615390 887948 525
304794 774990 509
875014 51703 525
462898 914520 525
918606 395471 525
721675 891584 525
360449 581848 470
115314 624085 470
713173 639958 504
393759 412419 449
632999 511430 509
80499 261002 443
592901 749207 509
220838 173830 386
610486 361852 470
694932 121258 509
552275 208117 470
181245 961455 525
981762 494262 525
807916 852482 525
822649 950558 525
225307 431461 449
471411 892254 525
586442 661683 509
681285 272985 509
456352 526313 470
992038 407841 525
150995 323653 443
41721 363753 443
52653 613428 470
367591 415919 449
700999 149005 509
875151 630727 525
993064 490072 525
390362 378382 436
500464 178118 449
645451 906241 525
975976 703438 525
147522 409160 443
38668 316562 443
258053 349787 441
355706 818574 509
137267 136002 331
545495 848566 525
665475 167181 509
410956 880175 525
228118 355506 443
432478 461107 400
751485 407606 509
140376 515765 470
403810 947312 525
380328 762222 509
613755 630692 509
715319 411971 509
367861 415646 449
653712 711850 504
622801 112200 470
655297 292713 509
382369 145357 443
839066 767233 525
621956 432971 470
348823 340610 441
441401 183385 449
808240 469461 509
808658 777468 468
8863 662232 509
322601 725790 509
755903 625561 509
644993 673782 442
492090 27442 449
796107 859487 525
203800 513918 470
138398 502984 449
382824 155334 443
816636 775844 468
769664 986130 525
